{
  "profiles": {
    "csharplogging": {
      "commandName": "Project",
      "workingDirectory": "C:\\Users\\jocelyn\\Documents\\MyProjects\\TotalTGITS\\logging\\csharp\\csharplogging\\csharplogging"
    }
  }
}